2 io_hartid[0]
3 io_hartid[1]
4 io_hartid[2]
5 io_hartid[3]
6 io_hartid[4]
7 io_hartid[5]
8 io_hartid[6]
9 io_hartid[7]
10 io_hartid[8]
11 io_hartid[9]
12 io_hartid[10]
13 io_hartid[11]
14 io_hartid[12]
15 io_hartid[13]
16 io_hartid[14]
17 io_hartid[15]
18 io_hartid[16]
19 io_hartid[17]
20 io_hartid[18]
21 io_hartid[19]
22 io_hartid[20]
23 io_hartid[21]
24 io_hartid[22]
25 io_hartid[23]
26 io_hartid[24]
27 io_hartid[25]
28 io_hartid[26]
29 io_hartid[27]
30 io_hartid[28]
31 io_hartid[29]
32 io_hartid[30]
33 io_hartid[31]
34 io_hartid[32]
35 io_hartid[33]
36 io_hartid[34]
37 io_hartid[35]
38 io_hartid[36]
39 io_hartid[37]
40 io_hartid[38]
41 io_hartid[39]
42 io_hartid[40]
43 io_hartid[41]
44 io_hartid[42]
45 io_hartid[43]
46 io_hartid[44]
47 io_hartid[45]
48 io_hartid[46]
49 io_hartid[47]
50 io_hartid[48]
51 io_hartid[49]
52 io_hartid[50]
53 io_hartid[51]
54 io_hartid[52]
55 io_hartid[53]
56 io_hartid[54]
57 io_hartid[55]
58 io_hartid[56]
59 io_hartid[57]
60 io_hartid[58]
61 io_hartid[59]
62 io_hartid[60]
63 io_hartid[61]
64 io_hartid[62]
65 io_hartid[63]
66 io_rw_addr[0]
67 io_rw_addr[1]
68 io_rw_addr[2]
69 io_rw_addr[3]
70 io_rw_addr[4]
71 io_rw_addr[5]
72 io_rw_addr[6]
73 io_rw_addr[7]
74 io_rw_addr[8]
75 io_rw_addr[9]
76 io_rw_addr[10]
77 io_rw_addr[11]
78 io_rw_cmd[0]
79 io_rw_cmd[1]
80 io_rw_cmd[2]
81 io_rw_rdata[0]
82 io_rw_rdata[1]
83 io_rw_rdata[2]
84 io_rw_rdata[3]
85 io_rw_rdata[4]
86 io_rw_rdata[5]
87 io_rw_rdata[6]
88 io_rw_rdata[7]
89 io_rw_rdata[8]
90 io_rw_rdata[9]
91 io_rw_rdata[10]
92 io_rw_rdata[11]
93 io_rw_rdata[12]
94 io_rw_rdata[13]
95 io_rw_rdata[14]
96 io_rw_rdata[15]
97 io_rw_rdata[16]
98 io_rw_rdata[17]
99 io_rw_rdata[18]
100 io_rw_rdata[19]
101 io_rw_rdata[20]
102 io_rw_rdata[21]
103 io_rw_rdata[22]
104 io_rw_rdata[23]
105 io_rw_rdata[24]
106 io_rw_rdata[25]
107 io_rw_rdata[26]
108 io_rw_rdata[27]
109 io_rw_rdata[28]
110 io_rw_rdata[29]
111 io_rw_rdata[30]
112 io_rw_rdata[31]
113 io_rw_rdata[32]
114 io_rw_rdata[33]
115 io_rw_rdata[34]
116 io_rw_rdata[35]
117 io_rw_rdata[36]
118 io_rw_rdata[37]
119 io_rw_rdata[38]
120 io_rw_rdata[39]
121 io_rw_rdata[40]
122 io_rw_rdata[41]
123 io_rw_rdata[42]
124 io_rw_rdata[43]
125 io_rw_rdata[44]
126 io_rw_rdata[45]
127 io_rw_rdata[46]
128 io_rw_rdata[47]
129 io_rw_rdata[48]
130 io_rw_rdata[49]
131 io_rw_rdata[50]
132 io_rw_rdata[51]
133 io_rw_rdata[52]
134 io_rw_rdata[53]
135 io_rw_rdata[54]
136 io_rw_rdata[55]
137 io_rw_rdata[56]
138 io_rw_rdata[57]
139 io_rw_rdata[58]
140 io_rw_rdata[59]
141 io_rw_rdata[60]
142 io_rw_rdata[61]
143 io_rw_rdata[62]
144 io_rw_rdata[63]
145 io_rw_wdata[0]
146 io_rw_wdata[1]
147 io_rw_wdata[2]
148 io_rw_wdata[3]
149 io_rw_wdata[4]
150 io_rw_wdata[5]
151 io_rw_wdata[6]
152 io_rw_wdata[7]
153 io_rw_wdata[8]
154 io_rw_wdata[9]
155 io_rw_wdata[10]
156 io_rw_wdata[11]
157 io_rw_wdata[12]
158 io_rw_wdata[13]
159 io_rw_wdata[14]
160 io_rw_wdata[15]
161 io_rw_wdata[16]
162 io_rw_wdata[17]
163 io_rw_wdata[18]
164 io_rw_wdata[19]
165 io_rw_wdata[20]
166 io_rw_wdata[21]
167 io_rw_wdata[22]
168 io_rw_wdata[23]
169 io_rw_wdata[24]
170 io_rw_wdata[25]
171 io_rw_wdata[26]
172 io_rw_wdata[27]
173 io_rw_wdata[28]
174 io_rw_wdata[29]
175 io_rw_wdata[30]
176 io_rw_wdata[31]
177 io_rw_wdata[32]
178 io_rw_wdata[33]
179 io_rw_wdata[34]
180 io_rw_wdata[35]
181 io_rw_wdata[36]
182 io_rw_wdata[37]
183 io_rw_wdata[38]
184 io_rw_wdata[39]
185 io_rw_wdata[40]
186 io_rw_wdata[41]
187 io_rw_wdata[42]
188 io_rw_wdata[43]
189 io_rw_wdata[44]
190 io_rw_wdata[45]
191 io_rw_wdata[46]
192 io_rw_wdata[47]
193 io_rw_wdata[48]
194 io_rw_wdata[49]
195 io_rw_wdata[50]
196 io_rw_wdata[51]
197 io_rw_wdata[52]
198 io_rw_wdata[53]
199 io_rw_wdata[54]
200 io_rw_wdata[55]
201 io_rw_wdata[56]
202 io_rw_wdata[57]
203 io_rw_wdata[58]
204 io_rw_wdata[59]
205 io_rw_wdata[60]
206 io_rw_wdata[61]
207 io_rw_wdata[62]
208 io_rw_wdata[63]
209 io_status_isa[0]
210 io_status_isa[1]
211 io_status_isa[2]
212 io_status_isa[3]
213 io_status_isa[4]
214 io_status_isa[5]
215 io_status_isa[6]
216 io_status_isa[7]
217 io_status_isa[8]
218 io_status_isa[9]
219 io_status_isa[10]
220 io_status_isa[11]
221 io_status_isa[12]
222 io_status_isa[13]
223 io_status_isa[14]
224 io_status_isa[15]
225 io_status_isa[16]
226 io_status_isa[17]
227 io_status_isa[18]
228 io_status_isa[19]
229 io_status_isa[20]
230 io_status_isa[21]
231 io_status_isa[22]
232 io_status_isa[23]
233 io_status_isa[24]
234 io_status_isa[25]
235 io_status_isa[26]
236 io_status_isa[27]
237 io_status_isa[28]
238 io_status_isa[29]
239 io_status_isa[30]
240 io_status_isa[31]
241 io_status_prv[0]
242 io_status_prv[1]
243 io_status_zero3[0]
244 io_status_zero3[1]
245 io_status_zero3[2]
246 io_status_zero3[3]
247 io_status_zero3[4]
248 io_status_zero3[5]
249 io_status_zero3[6]
250 io_status_zero3[7]
251 io_status_zero3[8]
252 io_status_zero3[9]
253 io_status_zero3[10]
254 io_status_zero3[11]
255 io_status_zero3[12]
256 io_status_zero3[13]
257 io_status_zero3[14]
258 io_status_zero3[15]
259 io_status_zero3[16]
260 io_status_zero3[17]
261 io_status_zero3[18]
262 io_status_zero3[19]
263 io_status_zero3[20]
264 io_status_zero3[21]
265 io_status_zero3[22]
266 io_status_zero3[23]
267 io_status_zero3[24]
268 io_status_zero3[25]
269 io_status_zero3[26]
270 io_status_zero3[27]
271 io_status_zero3[28]
272 io_status_zero3[29]
273 io_status_zero3[30]
274 io_status_zero2[0]
275 io_status_zero2[1]
276 io_status_vm[0]
277 io_status_vm[1]
278 io_status_vm[2]
279 io_status_vm[3]
280 io_status_vm[4]
281 io_status_zero1[0]
282 io_status_zero1[1]
283 io_status_zero1[2]
284 io_status_zero1[3]
285 io_status_xs[0]
286 io_status_xs[1]
287 io_status_fs[0]
288 io_status_fs[1]
289 io_status_mpp[0]
290 io_status_mpp[1]
291 io_status_hpp[0]
292 io_status_hpp[1]
293 io_ptbr_asid[0]
294 io_ptbr_asid[1]
295 io_ptbr_asid[2]
296 io_ptbr_asid[3]
297 io_ptbr_asid[4]
298 io_ptbr_asid[5]
299 io_ptbr_asid[6]
300 io_ptbr_ppn[0]
301 io_ptbr_ppn[1]
302 io_ptbr_ppn[2]
303 io_ptbr_ppn[3]
304 io_ptbr_ppn[4]
305 io_ptbr_ppn[5]
306 io_ptbr_ppn[6]
307 io_ptbr_ppn[7]
308 io_ptbr_ppn[8]
309 io_ptbr_ppn[9]
310 io_ptbr_ppn[10]
311 io_ptbr_ppn[11]
312 io_ptbr_ppn[12]
313 io_ptbr_ppn[13]
314 io_ptbr_ppn[14]
315 io_ptbr_ppn[15]
316 io_ptbr_ppn[16]
317 io_ptbr_ppn[17]
318 io_ptbr_ppn[18]
319 io_ptbr_ppn[19]
320 io_ptbr_ppn[20]
321 io_ptbr_ppn[21]
322 io_ptbr_ppn[22]
323 io_ptbr_ppn[23]
324 io_ptbr_ppn[24]
325 io_ptbr_ppn[25]
326 io_ptbr_ppn[26]
327 io_ptbr_ppn[27]
328 io_ptbr_ppn[28]
329 io_ptbr_ppn[29]
330 io_ptbr_ppn[30]
331 io_ptbr_ppn[31]
332 io_ptbr_ppn[32]
333 io_ptbr_ppn[33]
334 io_ptbr_ppn[34]
335 io_ptbr_ppn[35]
336 io_ptbr_ppn[36]
337 io_ptbr_ppn[37]
338 io_evec[0]
339 io_evec[1]
340 io_evec[2]
341 io_evec[3]
342 io_evec[4]
343 io_evec[5]
344 io_evec[6]
345 io_evec[7]
346 io_evec[8]
347 io_evec[9]
348 io_evec[10]
349 io_evec[11]
350 io_evec[12]
351 io_evec[13]
352 io_evec[14]
353 io_evec[15]
354 io_evec[16]
355 io_evec[17]
356 io_evec[18]
357 io_evec[19]
358 io_evec[20]
359 io_evec[21]
360 io_evec[22]
361 io_evec[23]
362 io_evec[24]
363 io_evec[25]
364 io_evec[26]
365 io_evec[27]
366 io_evec[28]
367 io_evec[29]
368 io_evec[30]
369 io_evec[31]
370 io_evec[32]
371 io_evec[33]
372 io_evec[34]
373 io_evec[35]
374 io_evec[36]
375 io_evec[37]
376 io_evec[38]
377 io_evec[39]
378 io_cause[0]
379 io_cause[1]
380 io_cause[2]
381 io_cause[3]
382 io_cause[4]
383 io_cause[5]
384 io_cause[6]
385 io_cause[7]
386 io_cause[8]
387 io_cause[9]
388 io_cause[10]
389 io_cause[11]
390 io_cause[12]
391 io_cause[13]
392 io_cause[14]
393 io_cause[15]
394 io_cause[16]
395 io_cause[17]
396 io_cause[18]
397 io_cause[19]
398 io_cause[20]
399 io_cause[21]
400 io_cause[22]
401 io_cause[23]
402 io_cause[24]
403 io_cause[25]
404 io_cause[26]
405 io_cause[27]
406 io_cause[28]
407 io_cause[29]
408 io_cause[30]
409 io_cause[31]
410 io_cause[32]
411 io_cause[33]
412 io_cause[34]
413 io_cause[35]
414 io_cause[36]
415 io_cause[37]
416 io_cause[38]
417 io_cause[39]
418 io_cause[40]
419 io_cause[41]
420 io_cause[42]
421 io_cause[43]
422 io_cause[44]
423 io_cause[45]
424 io_cause[46]
425 io_cause[47]
426 io_cause[48]
427 io_cause[49]
428 io_cause[50]
429 io_cause[51]
430 io_cause[52]
431 io_cause[53]
432 io_cause[54]
433 io_cause[55]
434 io_cause[56]
435 io_cause[57]
436 io_cause[58]
437 io_cause[59]
438 io_cause[60]
439 io_cause[61]
440 io_cause[62]
441 io_cause[63]
442 io_pc[0]
443 io_pc[1]
444 io_pc[2]
445 io_pc[3]
446 io_pc[4]
447 io_pc[5]
448 io_pc[6]
449 io_pc[7]
450 io_pc[8]
451 io_pc[9]
452 io_pc[10]
453 io_pc[11]
454 io_pc[12]
455 io_pc[13]
456 io_pc[14]
457 io_pc[15]
458 io_pc[16]
459 io_pc[17]
460 io_pc[18]
461 io_pc[19]
462 io_pc[20]
463 io_pc[21]
464 io_pc[22]
465 io_pc[23]
466 io_pc[24]
467 io_pc[25]
468 io_pc[26]
469 io_pc[27]
470 io_pc[28]
471 io_pc[29]
472 io_pc[30]
473 io_pc[31]
474 io_pc[32]
475 io_pc[33]
476 io_pc[34]
477 io_pc[35]
478 io_pc[36]
479 io_pc[37]
480 io_pc[38]
481 io_pc[39]
482 io_badaddr[0]
483 io_badaddr[1]
484 io_badaddr[2]
485 io_badaddr[3]
486 io_badaddr[4]
487 io_badaddr[5]
488 io_badaddr[6]
489 io_badaddr[7]
490 io_badaddr[8]
491 io_badaddr[9]
492 io_badaddr[10]
493 io_badaddr[11]
494 io_badaddr[12]
495 io_badaddr[13]
496 io_badaddr[14]
497 io_badaddr[15]
498 io_badaddr[16]
499 io_badaddr[17]
500 io_badaddr[18]
501 io_badaddr[19]
502 io_badaddr[20]
503 io_badaddr[21]
504 io_badaddr[22]
505 io_badaddr[23]
506 io_badaddr[24]
507 io_badaddr[25]
508 io_badaddr[26]
509 io_badaddr[27]
510 io_badaddr[28]
511 io_badaddr[29]
512 io_badaddr[30]
513 io_badaddr[31]
514 io_badaddr[32]
515 io_badaddr[33]
516 io_badaddr[34]
517 io_badaddr[35]
518 io_badaddr[36]
519 io_badaddr[37]
520 io_badaddr[38]
521 io_badaddr[39]
522 io_time[0]
523 io_time[1]
524 io_time[2]
525 io_time[3]
526 io_time[4]
527 io_time[5]
528 io_time[6]
529 io_time[7]
530 io_time[8]
531 io_time[9]
532 io_time[10]
533 io_time[11]
534 io_time[12]
535 io_time[13]
536 io_time[14]
537 io_time[15]
538 io_time[16]
539 io_time[17]
540 io_time[18]
541 io_time[19]
542 io_time[20]
543 io_time[21]
544 io_time[22]
545 io_time[23]
546 io_time[24]
547 io_time[25]
548 io_time[26]
549 io_time[27]
550 io_time[28]
551 io_time[29]
552 io_time[30]
553 io_time[31]
554 io_time[32]
555 io_time[33]
556 io_time[34]
557 io_time[35]
558 io_time[36]
559 io_time[37]
560 io_time[38]
561 io_time[39]
562 io_time[40]
563 io_time[41]
564 io_time[42]
565 io_time[43]
566 io_time[44]
567 io_time[45]
568 io_time[46]
569 io_time[47]
570 io_time[48]
571 io_time[49]
572 io_time[50]
573 io_time[51]
574 io_time[52]
575 io_time[53]
576 io_time[54]
577 io_time[55]
578 io_time[56]
579 io_time[57]
580 io_time[58]
581 io_time[59]
582 io_time[60]
583 io_time[61]
584 io_time[62]
585 io_time[63]
586 io_fcsr_rm[0]
587 io_fcsr_rm[1]
588 io_fcsr_rm[2]
589 io_fcsr_flags_bits[0]
590 io_fcsr_flags_bits[1]
591 io_fcsr_flags_bits[2]
592 io_fcsr_flags_bits[3]
593 io_fcsr_flags_bits[4]
594 io_interrupt_cause[0]
595 io_interrupt_cause[1]
596 io_interrupt_cause[2]
597 io_interrupt_cause[3]
598 io_interrupt_cause[4]
599 io_interrupt_cause[5]
600 io_interrupt_cause[6]
601 io_interrupt_cause[7]
602 io_interrupt_cause[8]
603 io_interrupt_cause[9]
604 io_interrupt_cause[10]
605 io_interrupt_cause[11]
606 io_interrupt_cause[12]
607 io_interrupt_cause[13]
608 io_interrupt_cause[14]
609 io_interrupt_cause[15]
610 io_interrupt_cause[16]
611 io_interrupt_cause[17]
612 io_interrupt_cause[18]
613 io_interrupt_cause[19]
614 io_interrupt_cause[20]
615 io_interrupt_cause[21]
616 io_interrupt_cause[22]
617 io_interrupt_cause[23]
618 io_interrupt_cause[24]
619 io_interrupt_cause[25]
620 io_interrupt_cause[26]
621 io_interrupt_cause[27]
622 io_interrupt_cause[28]
623 io_interrupt_cause[29]
624 io_interrupt_cause[30]
625 io_interrupt_cause[31]
626 io_interrupt_cause[32]
627 io_interrupt_cause[33]
628 io_interrupt_cause[34]
629 io_interrupt_cause[35]
630 io_interrupt_cause[36]
631 io_interrupt_cause[37]
632 io_interrupt_cause[38]
633 io_interrupt_cause[39]
634 io_interrupt_cause[40]
635 io_interrupt_cause[41]
636 io_interrupt_cause[42]
637 io_interrupt_cause[43]
638 io_interrupt_cause[44]
639 io_interrupt_cause[45]
640 io_interrupt_cause[46]
641 io_interrupt_cause[47]
642 io_interrupt_cause[48]
643 io_interrupt_cause[49]
644 io_interrupt_cause[50]
645 io_interrupt_cause[51]
646 io_interrupt_cause[52]
647 io_interrupt_cause[53]
648 io_interrupt_cause[54]
649 io_interrupt_cause[55]
650 io_interrupt_cause[56]
651 io_interrupt_cause[57]
652 io_interrupt_cause[58]
653 io_interrupt_cause[59]
654 io_interrupt_cause[60]
655 io_interrupt_cause[61]
656 io_interrupt_cause[62]
657 io_interrupt_cause[63]
658 io_bp_0_control_ttype[0]
659 io_bp_0_control_ttype[1]
660 io_bp_0_control_ttype[2]
661 io_bp_0_control_ttype[3]
662 io_bp_0_control_maskmax[0]
663 io_bp_0_control_maskmax[1]
664 io_bp_0_control_maskmax[2]
665 io_bp_0_control_maskmax[3]
666 io_bp_0_control_maskmax[4]
667 io_bp_0_control_maskmax[5]
668 io_bp_0_control_reserved[0]
669 io_bp_0_control_reserved[1]
670 io_bp_0_control_reserved[2]
671 io_bp_0_control_reserved[3]
672 io_bp_0_control_reserved[4]
673 io_bp_0_control_reserved[5]
674 io_bp_0_control_reserved[6]
675 io_bp_0_control_reserved[7]
676 io_bp_0_control_reserved[8]
677 io_bp_0_control_reserved[9]
678 io_bp_0_control_reserved[10]
679 io_bp_0_control_reserved[11]
680 io_bp_0_control_reserved[12]
681 io_bp_0_control_reserved[13]
682 io_bp_0_control_reserved[14]
683 io_bp_0_control_reserved[15]
684 io_bp_0_control_reserved[16]
685 io_bp_0_control_reserved[17]
686 io_bp_0_control_reserved[18]
687 io_bp_0_control_reserved[19]
688 io_bp_0_control_reserved[20]
689 io_bp_0_control_reserved[21]
690 io_bp_0_control_reserved[22]
691 io_bp_0_control_reserved[23]
692 io_bp_0_control_reserved[24]
693 io_bp_0_control_reserved[25]
694 io_bp_0_control_reserved[26]
695 io_bp_0_control_reserved[27]
696 io_bp_0_control_reserved[28]
697 io_bp_0_control_reserved[29]
698 io_bp_0_control_reserved[30]
699 io_bp_0_control_reserved[31]
700 io_bp_0_control_reserved[32]
701 io_bp_0_control_reserved[33]
702 io_bp_0_control_reserved[34]
703 io_bp_0_control_reserved[35]
704 io_bp_0_control_reserved[36]
705 io_bp_0_control_reserved[37]
706 io_bp_0_control_reserved[38]
707 io_bp_0_control_reserved[39]
708 io_bp_0_control_zero[0]
709 io_bp_0_control_zero[1]
710 io_bp_0_control_tmatch[0]
711 io_bp_0_control_tmatch[1]
712 io_bp_0_address[0]
713 io_bp_0_address[1]
714 io_bp_0_address[2]
715 io_bp_0_address[3]
716 io_bp_0_address[4]
717 io_bp_0_address[5]
718 io_bp_0_address[6]
719 io_bp_0_address[7]
720 io_bp_0_address[8]
721 io_bp_0_address[9]
722 io_bp_0_address[10]
723 io_bp_0_address[11]
724 io_bp_0_address[12]
725 io_bp_0_address[13]
726 io_bp_0_address[14]
727 io_bp_0_address[15]
728 io_bp_0_address[16]
729 io_bp_0_address[17]
730 io_bp_0_address[18]
731 io_bp_0_address[19]
732 io_bp_0_address[20]
733 io_bp_0_address[21]
734 io_bp_0_address[22]
735 io_bp_0_address[23]
736 io_bp_0_address[24]
737 io_bp_0_address[25]
738 io_bp_0_address[26]
739 io_bp_0_address[27]
740 io_bp_0_address[28]
741 io_bp_0_address[29]
742 io_bp_0_address[30]
743 io_bp_0_address[31]
744 io_bp_0_address[32]
745 io_bp_0_address[33]
746 io_bp_0_address[34]
747 io_bp_0_address[35]
748 io_bp_0_address[36]
749 io_bp_0_address[37]
750 io_bp_0_address[38]
751 reset
752 io_interrupts_debug
753 io_interrupts_mtip
754 io_interrupts_msip
755 io_interrupts_meip
756 io_interrupts_seip
757 io_exception
758 io_retire
759 io_fcsr_flags_valid
760 io_rocc_interrupt
761 io_events_0
762 io_events_1
763 io_events_2
764 io_events_3
765 io_events_4
766 io_events_5
767 io_events_6
768 io_events_7
769 io_events_8
770 io_events_9
771 io_events_10
772 io_events_11
773 io_events_12
774 io_events_13
775 io_events_14
776 io_events_15
777 io_events_16
778 io_events_17
779 io_events_18
780 io_events_19
781 io_events_20
782 io_events_21
783 io_events_22
784 io_events_23
785 io_events_24
786 io_events_25
787 io_events_26
788 io_events_27
789 io_events_28
790 io_events_29
791 io_events_30
792 canary_in
793 io_csr_stall
794 io_csr_xcpt
795 io_eret
796 io_singleStep
797 io_status_debug
798 io_status_sd
799 io_status_sd_rv32
800 io_status_mxr
801 io_status_pum
802 io_status_mprv
803 io_status_spp
804 io_status_mpie
805 io_status_hpie
806 io_status_spie
807 io_status_upie
808 io_status_mie
809 io_status_hie
810 io_status_sie
811 io_status_uie
812 io_fatc
813 io_interrupt
814 io_bp_0_control_dmode
815 io_bp_0_control_action
816 io_bp_0_control_chain
817 io_bp_0_control_m
818 io_bp_0_control_h
819 io_bp_0_control_s
820 io_bp_0_control_u
821 io_bp_0_control_x
822 io_bp_0_control_w
823 io_bp_0_control_r
824 alarm
